<svg width="32" height="33" fill="none" xmlns="http://www.w3.org/2000/svg">
  <g clip-path="url(#a)" fill="currentColor">
    <path d="m12.495 17.238-1.84-9.18a.92.92 0 0 0-.902-.738h-1.84a.92.92 0 0 0-.901.738l-1.84 9.18a.92.92 0 0 0 1.804.36l.588-2.934h2.539l.588 2.934a.92.92 0 0 0 1.803-.36Zm-4.563-4.41.736-3.672h.331l.736 3.672H7.932ZM27.228 14.664h-2.76v-.918a.919.919 0 0 0-1.839 0v.918H19.87a.919.919 0 1 0 0 1.836h.223a11.479 11.479 0 0 0 2.181 4.026c-.707.646-1.422 1.175-2.059 1.683a.917.917 0 0 0-.143 1.29.92.92 0 0 0 1.292.144c.64-.512 1.409-1.08 2.185-1.791.777.711 1.546 1.28 2.185 1.79a.92.92 0 0 0 1.292-.143.917.917 0 0 0-.143-1.29c-.636-.507-1.352-1.037-2.059-1.683a11.479 11.479 0 0 0 2.181-4.026h.223a.919.919 0 1 0 0-1.836Zm-3.679 4.513a9.666 9.666 0 0 1-1.513-2.683h3.026a9.666 9.666 0 0 1-1.513 2.683Z"/>
    <path d="M29.129 6.403H15.86l-.394-3.157A2.762 2.762 0 0 0 12.728.833H3.254a2.76 2.76 0 0 0-2.76 2.754v20.257a2.76 2.76 0 0 0 2.76 2.754h7.755l.39 3.157a2.764 2.764 0 0 0 2.737 2.412H29.13a2.76 2.76 0 0 0 2.759-2.754V9.156a2.76 2.76 0 0 0-2.76-2.753ZM3.254 24.762a.92.92 0 0 1-.92-.918V3.587a.92.92 0 0 1 .92-.918h9.474a.92.92 0 0 1 .913.804l2.658 21.289H3.254Zm9.916 4.33-.307-2.494h2.467l-2.16 2.494Zm16.878.32a.92.92 0 0 1-.92.919h-14.6l3.501-4.042c.18-.202.26-.47.223-.736L16.09 8.238h13.039a.92.92 0 0 1 .92.918v20.257Z"/>
  </g>
  <defs>
    <clipPath id="a">
      <path fill="currentColor" transform="translate(.495 .833)" d="M0 0h31.393v31.333H0z"/>
    </clipPath>
  </defs>
</svg>
